id;victories;nation;code
1;36;France;FR
2;18;Belgique;BE
3;12;Espagne;ES
4;10;Italie;IT
5;6;Royaume-Uni;UK
6;5;Luxembourg;LU
7;3;États-Unis;US
8;2;Pays-Bas;NL
9;2;Suisse;CH
10;1;Allemagne;DE
11;1;Australie;AU
12;1;Colombie;CO
13;1;Danemark;DK
14;1;Irlande;IE
